…
``` r
african_gdps %>%
  group_by(country, independence) %>%
  summarise(
    crisis_prop = mean(systemic_crisis == 1)
  )
```

    ## # A tibble: 25 x 3
    ## # Groups:   country [13]
    ##    country                  independence crisis_prop
    ##    <chr>                    <fct>              <dbl>
    ##  1 Algeria                  0                 0.0263
    ##  2 Algeria                  1                 0.0638
    ##  3 Angola                   0                 0     
    ##  4 Angola                   1                 0     
    ##  5 Central African Republic 0                 0     
    ##  6 Central African Republic 1                 0.345 
    ##  7 Egypt                    1                 0.0387
    ##  8 Ivory Coast              0                 0     
    ##  9 Ivory Coast              1                 0.0727
    ## 10 Kenya                    0                 0     
    ## # … with 15 more rows
…
