…
We see that the median amount of years a country will first encounter a
banking crisis after they achieve independence is about 30 years, with
an interquartile range of 11 years and a mean of 31.3 years.

This is fascinating, but we’re more interested in seeing if there’s a
difference in the economic stability of independent vs. colonized
African countries. In particular, we’re wondering if post-independence
African countries see a higher proportion of systemic crises (per year)
compared to before independence, when they were colonized. Let’s examine
it:

    ## # A tibble: 25 x 3
    ## # Groups:   country [13]
    ##    country                  independence crisis_prop
    ##    <chr>                           <dbl>       <dbl>
    ##  1 Algeria                             0      0.0263
    ##  2 Algeria                             1      0.0638
    ##  3 Angola                              0      0     
    ##  4 Angola                              1      0     
    ##  5 Central African Republic            0      0     
    ##  6 Central African Republic            1      0.345 
    ##  7 Egypt                               1      0.0387
    ##  8 Ivory Coast                         0      0     
    ##  9 Ivory Coast                         1      0.0727
    ## 10 Kenya                               0      0     
    ## # … with 15 more rows
…
